\babel@toc {croatian}{}
\addvspace {10\p@ }
\addvspace {10\p@ }
\addvspace {10\p@ }
\addvspace {10\p@ }
\contentsline {table}{\numberline {4.1}{\ignorespaces Parametri skupa za učenje\relax }}{22}{table.caption.84}%
\contentsline {table}{\numberline {4.2}{\ignorespaces Parametri modela i početne vrijednosti\relax }}{23}{table.caption.85}%
\contentsline {table}{\numberline {4.3}{\ignorespaces Dimenzije ulaza i izlaza konvolucijskih slojeva generatora\relax }}{24}{table.caption.88}%
\contentsline {table}{\numberline {4.4}{\ignorespaces Dimenzije ulaza i izlaza konvolucijskih slojeva diskriminatora\relax }}{24}{table.caption.90}%
\contentsline {table}{\numberline {4.5}{\ignorespaces Nazivi klasa generiranih primjera - UTKFace\relax }}{26}{table.caption.96}%
\contentsline {table}{\numberline {4.6}{\ignorespaces Prikaz pogreške tijekom treniranja\relax }}{27}{table.caption.99}%
\contentsline {table}{\numberline {4.7}{\ignorespaces Nazivi klasa generiranih primjera - CelebA\relax }}{29}{table.caption.104}%
\addvspace {10\p@ }
