\relax 
\providecommand\hyper@newdestlabel[2]{}
\providecommand\babel@aux[2]{}
\@nameuse{bbl@beforestart}
\providecommand\HyperFirstAtBeginDocument{\AtBeginDocument}
\HyperFirstAtBeginDocument{\ifx\hyper@anchor\@undefined
\global\let\oldcontentsline\contentsline
\gdef\contentsline#1#2#3#4{\oldcontentsline{#1}{#2}{#3}}
\global\let\oldnewlabel\newlabel
\gdef\newlabel#1#2{\newlabelxx{#1}#2}
\gdef\newlabelxx#1#2#3#4#5#6{\oldnewlabel{#1}{{#2}{#3}}}
\AtEndDocument{\ifx\hyper@anchor\@undefined
\let\contentsline\oldcontentsline
\let\newlabel\oldnewlabel
\fi}
\fi}
\global\let\hyper@last\relax 
\gdef\HyperFirstAtBeginDocument#1{#1}
\providecommand\HyField@AuxAddToFields[1]{}
\providecommand\HyField@AuxAddToCoFields[2]{}
\babel@aux{croatian}{}
\citation{goodfellow2014generative}
\@writefile{toc}{\contentsline {chapter}{\numberline {1}Uvod}{1}{chapter.1}\protected@file@percent }
\@writefile{lof}{\addvspace {10\p@ }}
\@writefile{lot}{\addvspace {10\p@ }}
\@writefile{toc}{\contentsline {paragraph}{}{1}{section*.2}\protected@file@percent }
\@writefile{toc}{\contentsline {paragraph}{}{1}{section*.3}\protected@file@percent }
\@writefile{toc}{\contentsline {chapter}{\numberline {2}Strojno učenje}{2}{chapter.2}\protected@file@percent }
\@writefile{lof}{\addvspace {10\p@ }}
\@writefile{lot}{\addvspace {10\p@ }}
\@writefile{toc}{\contentsline {section}{\numberline {2.1}Dijelovi algoritma strojnog učenja}{2}{section.2.1}\protected@file@percent }
\newlabel{machine_learning_parts}{{2.1}{2}{Dijelovi algoritma strojnog učenja}{section.2.1}{}}
\@writefile{toc}{\contentsline {subsection}{\numberline {2.1.1}Funkcija pogreške}{2}{subsection.2.1.1}\protected@file@percent }
\newlabel{ex:1}{{2.1}{2}{Funkcija pogreške}{equation.2.1.1}{}}
\newlabel{ex:3}{{2.2}{2}{Funkcija pogreške}{equation.2.1.2}{}}
\@writefile{toc}{\contentsline {subsection}{\numberline {2.1.2}Optimizacijski postupak}{2}{subsection.2.1.2}\protected@file@percent }
\newlabel{ex:2}{{2.3}{2}{Optimizacijski postupak}{equation.2.1.3}{}}
\@writefile{toc}{\contentsline {subsection}{\numberline {2.1.3}Model}{3}{subsection.2.1.3}\protected@file@percent }
\@writefile{toc}{\contentsline {paragraph}{}{3}{section*.4}\protected@file@percent }
\@writefile{toc}{\contentsline {paragraph}{}{3}{section*.5}\protected@file@percent }
\@writefile{lof}{\contentsline {figure}{\numberline {2.1}{\ignorespaces Prikaz ovisnosti hipoteza i složenosti modela\relax }}{4}{figure.caption.6}\protected@file@percent }
\providecommand*\caption@xref[2]{\@setref\relax\@undefined{#1}}
\newlabel{fig:model}{{2.1}{4}{Prikaz ovisnosti hipoteza i složenosti modela\relax }{figure.caption.6}{}}
\@writefile{toc}{\contentsline {paragraph}{}{4}{section*.7}\protected@file@percent }
\@writefile{toc}{\contentsline {paragraph}{}{4}{section*.8}\protected@file@percent }
\@writefile{toc}{\contentsline {paragraph}{}{4}{section*.9}\protected@file@percent }
\citation{PreventOverfitting}
\citation{PreventOverfitting}
\citation{GenVsDisc}
\@writefile{toc}{\contentsline {section}{\numberline {2.2}Testiranje modela}{5}{section.2.2}\protected@file@percent }
\@writefile{toc}{\contentsline {paragraph}{}{5}{section*.10}\protected@file@percent }
\@writefile{toc}{\contentsline {paragraph}{}{5}{section*.11}\protected@file@percent }
\@writefile{lof}{\contentsline {figure}{\numberline {2.2}{\ignorespaces Odnos pogreške treniranja i validacije tijekom procesa treniranja \citep  {PreventOverfitting}\relax }}{5}{figure.caption.12}\protected@file@percent }
\newlabel{fig:test_train}{{2.2}{5}{Odnos pogreške treniranja i validacije tijekom procesa treniranja \citep {PreventOverfitting}\relax }{figure.caption.12}{}}
\@writefile{toc}{\contentsline {paragraph}{}{5}{section*.13}\protected@file@percent }
\@writefile{toc}{\contentsline {section}{\numberline {2.3}Generativni modeli i diskriminativni modeli}{6}{section.2.3}\protected@file@percent }
\@writefile{toc}{\contentsline {paragraph}{}{6}{section*.14}\protected@file@percent }
\@writefile{toc}{\contentsline {paragraph}{}{6}{section*.15}\protected@file@percent }
\@writefile{toc}{\contentsline {paragraph}{}{6}{section*.16}\protected@file@percent }
\@writefile{toc}{\contentsline {paragraph}{}{6}{section*.17}\protected@file@percent }
\@writefile{toc}{\contentsline {paragraph}{}{6}{section*.18}\protected@file@percent }
\@writefile{toc}{\contentsline {section}{\numberline {2.4}Duboko učenje}{7}{section.2.4}\protected@file@percent }
\@writefile{toc}{\contentsline {paragraph}{}{7}{section*.19}\protected@file@percent }
\citation{RModel}
\citation{RModel}
\@writefile{toc}{\contentsline {chapter}{\numberline {3}Neuronske mreže}{8}{chapter.3}\protected@file@percent }
\@writefile{lof}{\addvspace {10\p@ }}
\@writefile{lot}{\addvspace {10\p@ }}
\@writefile{toc}{\contentsline {section}{\numberline {3.1}Neuronske mreže}{8}{section.3.1}\protected@file@percent }
\@writefile{toc}{\contentsline {paragraph}{}{8}{section*.20}\protected@file@percent }
\@writefile{toc}{\contentsline {section}{\numberline {3.2}Građa neuronske mreže}{8}{section.3.2}\protected@file@percent }
\@writefile{toc}{\contentsline {paragraph}{}{8}{section*.21}\protected@file@percent }
\@writefile{lof}{\contentsline {figure}{\numberline {3.1}{\ignorespaces Građa neuronske mreže \citep  {RModel}\relax }}{8}{figure.caption.23}\protected@file@percent }
\newlabel{fig:neural_net}{{3.1}{8}{Građa neuronske mreže \citep {RModel}\relax }{figure.caption.23}{}}
\@writefile{toc}{\contentsline {paragraph}{}{8}{figure.caption.23}\protected@file@percent }
\citation{Neuron}
\citation{Neuron}
\citation{ActivationFunction}
\@writefile{toc}{\contentsline {paragraph}{}{9}{section*.24}\protected@file@percent }
\@writefile{toc}{\contentsline {paragraph}{}{9}{section*.25}\protected@file@percent }
\@writefile{lof}{\contentsline {figure}{\numberline {3.2}{\ignorespaces Sistemske cjeline jednog neurona \citep  {Neuron}\relax }}{9}{figure.caption.26}\protected@file@percent }
\newlabel{fig:neuron}{{3.2}{9}{Sistemske cjeline jednog neurona \citep {Neuron}\relax }{figure.caption.26}{}}
\@writefile{toc}{\contentsline {section}{\numberline {3.3}Aktivacijske funkcije}{9}{section.3.3}\protected@file@percent }
\@writefile{toc}{\contentsline {paragraph}{}{9}{section*.27}\protected@file@percent }
\@writefile{toc}{\contentsline {paragraph}{}{9}{section*.28}\protected@file@percent }
\@writefile{toc}{\contentsline {subsection}{\numberline {3.3.1}Primjeri aktivacijskih funkcija}{10}{subsection.3.3.1}\protected@file@percent }
\@writefile{toc}{\contentsline {subsubsection}{Linearna}{10}{section*.29}\protected@file@percent }
\@writefile{toc}{\contentsline {subsubsection}{ReLU}{10}{section*.30}\protected@file@percent }
\@writefile{toc}{\contentsline {subsubsection}{Sigmoidna funkcija}{10}{section*.31}\protected@file@percent }
\@writefile{toc}{\contentsline {subsubsection}{Tangens hiperbolni ($tanh$)}{10}{section*.32}\protected@file@percent }
\@writefile{toc}{\contentsline {subsubsection}{Softmax}{10}{section*.33}\protected@file@percent }
\@writefile{toc}{\contentsline {subsection}{\numberline {3.3.2}Primjena aktivacijskih funkcija}{11}{subsection.3.3.2}\protected@file@percent }
\@writefile{toc}{\contentsline {paragraph}{}{11}{section*.34}\protected@file@percent }
\@writefile{toc}{\contentsline {paragraph}{}{11}{section*.35}\protected@file@percent }
\@writefile{toc}{\contentsline {paragraph}{}{11}{section*.36}\protected@file@percent }
\citation{NeuralNetOverview}
\citation{ConvImage}
\citation{ConvImage}
\@writefile{toc}{\contentsline {section}{\numberline {3.4}Slojevi neuronskih mreža}{12}{section.3.4}\protected@file@percent }
\@writefile{toc}{\contentsline {paragraph}{}{12}{section*.37}\protected@file@percent }
\@writefile{toc}{\contentsline {subsection}{\numberline {3.4.1}Potpuno povezani sloj}{12}{subsection.3.4.1}\protected@file@percent }
\@writefile{toc}{\contentsline {paragraph}{}{12}{section*.38}\protected@file@percent }
\@writefile{toc}{\contentsline {subsection}{\numberline {3.4.2}Konvolucijski sloj}{12}{subsection.3.4.2}\protected@file@percent }
\@writefile{toc}{\contentsline {paragraph}{}{12}{section*.39}\protected@file@percent }
\@writefile{toc}{\contentsline {paragraph}{}{12}{section*.40}\protected@file@percent }
\@writefile{toc}{\contentsline {paragraph}{}{12}{section*.41}\protected@file@percent }
\citation{NeuralNetTrain}
\@writefile{toc}{\contentsline {paragraph}{}{13}{section*.42}\protected@file@percent }
\@writefile{lof}{\contentsline {figure}{\numberline {3.3}{\ignorespaces Primjer konvolucije \citep  {ConvImage}\relax }}{13}{figure.caption.43}\protected@file@percent }
\newlabel{fig:convolution}{{3.3}{13}{Primjer konvolucije \citep {ConvImage}\relax }{figure.caption.43}{}}
\@writefile{toc}{\contentsline {subsection}{\numberline {3.4.3}Sloj sažimanja}{13}{subsection.3.4.3}\protected@file@percent }
\@writefile{toc}{\contentsline {paragraph}{}{13}{section*.44}\protected@file@percent }
\@writefile{toc}{\contentsline {paragraph}{}{13}{section*.45}\protected@file@percent }
\@writefile{toc}{\contentsline {section}{\numberline {3.5}Treniranje neuronske mreže}{13}{section.3.5}\protected@file@percent }
\@writefile{toc}{\contentsline {paragraph}{}{13}{section*.46}\protected@file@percent }
\@writefile{toc}{\contentsline {paragraph}{}{14}{section*.47}\protected@file@percent }
\@writefile{toc}{\contentsline {paragraph}{}{14}{section*.48}\protected@file@percent }
\@writefile{toc}{\contentsline {paragraph}{}{14}{section*.49}\protected@file@percent }
\citation{journals/corr/abs-1710-10196,ProgressiveGAN}
\citation{journals/corr/MirzaO14}
\citation{CycleGAN2017}
\@writefile{toc}{\contentsline {chapter}{\numberline {4}Generativne suparničke mreže}{15}{chapter.4}\protected@file@percent }
\@writefile{lof}{\addvspace {10\p@ }}
\@writefile{lot}{\addvspace {10\p@ }}
\@writefile{toc}{\contentsline {section}{\numberline {4.1}Uvod}{15}{section.4.1}\protected@file@percent }
\@writefile{toc}{\contentsline {paragraph}{}{15}{section*.50}\protected@file@percent }
\@writefile{toc}{\contentsline {paragraph}{}{15}{section*.51}\protected@file@percent }
\@writefile{toc}{\contentsline {paragraph}{}{15}{section*.52}\protected@file@percent }
\@writefile{toc}{\contentsline {paragraph}{}{15}{section*.53}\protected@file@percent }
\@writefile{toc}{\contentsline {section}{\numberline {4.2}Treniranje generativno suparničke mreže}{16}{section.4.2}\protected@file@percent }
\@writefile{toc}{\contentsline {subsection}{\numberline {4.2.1}Usporedbe distribucija podatka}{16}{subsection.4.2.1}\protected@file@percent }
\@writefile{toc}{\contentsline {paragraph}{}{16}{section*.54}\protected@file@percent }
\@writefile{toc}{\contentsline {paragraph}{}{16}{section*.55}\protected@file@percent }
\@writefile{toc}{\contentsline {paragraph}{}{16}{section*.56}\protected@file@percent }
\citation{arjovsky2017principled}
\citation{goodfellow2014generative}
\@writefile{toc}{\contentsline {subsection}{\numberline {4.2.2}Funkcije pogreške}{17}{subsection.4.2.2}\protected@file@percent }
\@writefile{toc}{\contentsline {paragraph}{}{17}{section*.57}\protected@file@percent }
\@writefile{toc}{\contentsline {subsubsection}{Standardna pogreška}{17}{section*.58}\protected@file@percent }
\@writefile{toc}{\contentsline {paragraph}{}{17}{section*.59}\protected@file@percent }
\@writefile{toc}{\contentsline {paragraph}{}{17}{section*.60}\protected@file@percent }
\@writefile{toc}{\contentsline {paragraph}{}{17}{section*.61}\protected@file@percent }
\@writefile{toc}{\contentsline {subsubsection}{Poteškoće tijekom treniranja}{17}{section*.62}\protected@file@percent }
\@writefile{toc}{\contentsline {paragraph}{}{17}{section*.63}\protected@file@percent }
\@writefile{toc}{\contentsline {paragraph}{}{18}{section*.64}\protected@file@percent }
\@writefile{toc}{\contentsline {paragraph}{}{18}{section*.65}\protected@file@percent }
\@writefile{toc}{\contentsline {subsubsection}{Wasserstainov gubitak}{18}{section*.66}\protected@file@percent }
\@writefile{toc}{\contentsline {paragraph}{}{18}{section*.67}\protected@file@percent }
\citation{wiki:PyTorch}
\@writefile{toc}{\contentsline {section}{\numberline {4.3}Implementacija generativno suparničke mreže}{19}{section.4.3}\protected@file@percent }
\@writefile{toc}{\contentsline {subsection}{\numberline {4.3.1}Korištene tehnologije}{19}{subsection.4.3.1}\protected@file@percent }
\@writefile{toc}{\contentsline {paragraph}{}{19}{section*.68}\protected@file@percent }
\@writefile{toc}{\contentsline {paragraph}{}{19}{section*.69}\protected@file@percent }
\@writefile{toc}{\contentsline {paragraph}{}{19}{section*.70}\protected@file@percent }
\@writefile{toc}{\contentsline {subsection}{\numberline {4.3.2}Skupovi za učenje}{19}{subsection.4.3.2}\protected@file@percent }
\@writefile{toc}{\contentsline {subsubsection}{UTKFace}{19}{section*.71}\protected@file@percent }
\@writefile{toc}{\contentsline {paragraph}{}{19}{section*.72}\protected@file@percent }
\@writefile{toc}{\contentsline {paragraph}{}{19}{section*.73}\protected@file@percent }
\@writefile{lof}{\contentsline {figure}{\numberline {4.1}{\ignorespaces Prikaz primjera skupa za treniranje - UTKFace skup za treniranje\relax }}{20}{figure.caption.74}\protected@file@percent }
\newlabel{fig:training-samples-utk}{{4.1}{20}{Prikaz primjera skupa za treniranje - UTKFace skup za treniranje\relax }{figure.caption.74}{}}
\@writefile{lof}{\contentsline {subfigure}{\numberline{(a)}{\ignorespaces {\centering Muška osoba, bijelac, jedna godina}}}{20}{subfigure.1.1}\protected@file@percent }
\@writefile{lof}{\contentsline {subfigure}{\numberline{(b)}{\ignorespaces {\centering Muška osoba, bijelac, 116 godina}}}{20}{subfigure.1.2}\protected@file@percent }
\@writefile{lof}{\contentsline {subfigure}{\numberline{(c)}{\ignorespaces {\centering Ženska osoba, crnkinja, 110 godina}}}{20}{subfigure.1.3}\protected@file@percent }
\@writefile{lof}{\contentsline {subfigure}{\numberline{(d)}{\ignorespaces {\centering Ženska osoba, bjelkinja, 65 godina}}}{20}{subfigure.1.4}\protected@file@percent }
\@writefile{toc}{\contentsline {subsubsection}{CelebA}{20}{section*.75}\protected@file@percent }
\@writefile{toc}{\contentsline {paragraph}{}{20}{section*.76}\protected@file@percent }
\@writefile{toc}{\contentsline {paragraph}{}{20}{section*.78}\protected@file@percent }
\@writefile{lof}{\contentsline {figure}{\numberline {4.2}{\ignorespaces Prikaz primjera skupa za treniranje - CelebA skup za treniranje\relax }}{21}{figure.caption.77}\protected@file@percent }
\newlabel{fig:training-samples-celeba}{{4.2}{21}{Prikaz primjera skupa za treniranje - CelebA skup za treniranje\relax }{figure.caption.77}{}}
\@writefile{lof}{\contentsline {subfigure}{\numberline{(a)}{\ignorespaces {}}}{21}{subfigure.2.1}\protected@file@percent }
\@writefile{lof}{\contentsline {subfigure}{\numberline{(b)}{\ignorespaces {}}}{21}{subfigure.2.2}\protected@file@percent }
\@writefile{lof}{\contentsline {subfigure}{\numberline{(c)}{\ignorespaces {}}}{21}{subfigure.2.3}\protected@file@percent }
\@writefile{lof}{\contentsline {subfigure}{\numberline{(d)}{\ignorespaces {}}}{21}{subfigure.2.4}\protected@file@percent }
\@writefile{toc}{\contentsline {subsubsection}{Implementacija rukovanja skupom podataka}{21}{section*.79}\protected@file@percent }
\@writefile{toc}{\contentsline {paragraph}{}{21}{section*.80}\protected@file@percent }
\@writefile{toc}{\contentsline {paragraph}{}{21}{section*.81}\protected@file@percent }
\@writefile{toc}{\contentsline {paragraph}{}{21}{section*.82}\protected@file@percent }
\@writefile{toc}{\contentsline {subsection}{\numberline {4.3.3}Tehnički podaci}{22}{subsection.4.3.3}\protected@file@percent }
\@writefile{toc}{\contentsline {paragraph}{}{22}{section*.83}\protected@file@percent }
\@writefile{lot}{\contentsline {table}{\numberline {4.1}{\ignorespaces Parametri skupa za učenje\relax }}{22}{table.caption.84}\protected@file@percent }
\@writefile{lot}{\contentsline {table}{\numberline {4.2}{\ignorespaces Parametri modela i početne vrijednosti\relax }}{23}{table.caption.85}\protected@file@percent }
\@writefile{toc}{\contentsline {subsubsection}{Arhitektura mreže}{24}{section*.86}\protected@file@percent }
\newlabel{net_arch}{{4.3.3}{24}{Arhitektura mreže}{section*.86}{}}
\@writefile{toc}{\contentsline {paragraph}{}{24}{section*.87}\protected@file@percent }
\@writefile{lot}{\contentsline {table}{\numberline {4.3}{\ignorespaces Dimenzije ulaza i izlaza konvolucijskih slojeva generatora\relax }}{24}{table.caption.88}\protected@file@percent }
\@writefile{toc}{\contentsline {paragraph}{}{24}{section*.89}\protected@file@percent }
\@writefile{lot}{\contentsline {table}{\numberline {4.4}{\ignorespaces Dimenzije ulaza i izlaza konvolucijskih slojeva diskriminatora\relax }}{24}{table.caption.90}\protected@file@percent }
\@writefile{toc}{\contentsline {subsection}{\numberline {4.3.4}Rezultati generiranja}{25}{subsection.4.3.4}\protected@file@percent }
\@writefile{toc}{\contentsline {subsubsection}{UTKFace}{25}{section*.91}\protected@file@percent }
\@writefile{toc}{\contentsline {paragraph}{}{25}{section*.92}\protected@file@percent }
\@writefile{lof}{\contentsline {figure}{\numberline {4.3}{\ignorespaces Generirani primjerci kroz epohe - UTKFace\relax }}{25}{figure.caption.93}\protected@file@percent }
\newlabel{fig:generator-samples-utk}{{4.3}{25}{Generirani primjerci kroz epohe - UTKFace\relax }{figure.caption.93}{}}
\@writefile{lof}{\contentsline {subfigure}{\numberline{(a)}{\ignorespaces {\centering Generirani primjerci nakon prva epohe}}}{25}{subfigure.3.1}\protected@file@percent }
\@writefile{lof}{\contentsline {subfigure}{\numberline{(b)}{\ignorespaces {\centering Generirani primjerci nakon druge epohe}}}{25}{subfigure.3.2}\protected@file@percent }
\@writefile{lof}{\contentsline {subfigure}{\numberline{(c)}{\ignorespaces {\centering Generirani primjerci nakon treće epohe}}}{25}{subfigure.3.3}\protected@file@percent }
\@writefile{lof}{\contentsline {subfigure}{\numberline{(d)}{\ignorespaces {\centering Generirani primjerci nakon četvrte epohe}}}{25}{subfigure.3.4}\protected@file@percent }
\@writefile{lof}{\contentsline {subfigure}{\numberline{(e)}{\ignorespaces {\centering Generirani primjerci nakon pete epohe}}}{25}{subfigure.3.5}\protected@file@percent }
\@writefile{lof}{\contentsline {subfigure}{\numberline{(f)}{\ignorespaces {\centering Generirani primjerci nakon šeste epohe}}}{25}{subfigure.3.6}\protected@file@percent }
\@writefile{lof}{\contentsline {subfigure}{\numberline{(g)}{\ignorespaces {\centering Generirani primjerci nakon sedme epohe}}}{25}{subfigure.3.7}\protected@file@percent }
\@writefile{lof}{\contentsline {subfigure}{\numberline{(h)}{\ignorespaces {\centering Generirani primjerci nakon osme epohe}}}{25}{subfigure.3.8}\protected@file@percent }
\@writefile{lof}{\contentsline {subfigure}{\numberline{(i)}{\ignorespaces {\centering Generirani primjerci nakon devete epohe}}}{25}{subfigure.3.9}\protected@file@percent }
\@writefile{lof}{\contentsline {subfigure}{\numberline{(j)}{\ignorespaces {\centering Generirani primjerci nakon desete epohe}}}{25}{subfigure.3.10}\protected@file@percent }
\@writefile{lof}{\contentsline {subfigure}{\numberline{(k)}{\ignorespaces {\centering Generirani primjerci nakon jedanaeste epohe}}}{25}{subfigure.3.11}\protected@file@percent }
\@writefile{lof}{\contentsline {subfigure}{\numberline{(l)}{\ignorespaces {\centering Generirani primjerci nakon dvanaeste epohe}}}{25}{subfigure.3.12}\protected@file@percent }
\@writefile{lof}{\contentsline {subfigure}{\numberline{(m)}{\ignorespaces {\centering Generirani primjerci nakon trinaeste epohe}}}{25}{subfigure.3.13}\protected@file@percent }
\@writefile{lof}{\contentsline {subfigure}{\numberline{(n)}{\ignorespaces {\centering Generirani primjerci nakon četrnaeste epohe}}}{25}{subfigure.3.14}\protected@file@percent }
\@writefile{lof}{\contentsline {subfigure}{\numberline{(o)}{\ignorespaces {\centering Generirani primjerci nakon petnaeste epohe}}}{25}{subfigure.3.15}\protected@file@percent }
\@writefile{toc}{\contentsline {paragraph}{}{26}{section*.94}\protected@file@percent }
\@writefile{lof}{\contentsline {figure}{\numberline {4.4}{\ignorespaces Generirani primjerci gotovim UTKFace modelom\relax }}{26}{figure.caption.95}\protected@file@percent }
\@writefile{lot}{\contentsline {table}{\numberline {4.5}{\ignorespaces Nazivi klasa generiranih primjera - UTKFace\relax }}{26}{table.caption.96}\protected@file@percent }
\@writefile{toc}{\contentsline {paragraph}{}{26}{section*.97}\protected@file@percent }
\@writefile{lof}{\contentsline {figure}{\numberline {4.5}{\ignorespaces Kretanje pogreške na generiranim i primjerima za treniranje\relax }}{27}{figure.caption.98}\protected@file@percent }
\newlabel{fig:loss}{{4.5}{27}{Kretanje pogreške na generiranim i primjerima za treniranje\relax }{figure.caption.98}{}}
\@writefile{lot}{\contentsline {table}{\numberline {4.6}{\ignorespaces Prikaz pogreške tijekom treniranja\relax }}{27}{table.caption.99}\protected@file@percent }
\@writefile{toc}{\contentsline {subsubsection}{CelebA}{28}{section*.100}\protected@file@percent }
\@writefile{toc}{\contentsline {paragraph}{}{28}{section*.101}\protected@file@percent }
\@writefile{lof}{\contentsline {figure}{\numberline {4.6}{\ignorespaces Generirani primjerci kroz epohe - CelebA\relax }}{28}{figure.caption.102}\protected@file@percent }
\newlabel{fig:generator-samples-celeba}{{4.6}{28}{Generirani primjerci kroz epohe - CelebA\relax }{figure.caption.102}{}}
\@writefile{lof}{\contentsline {subfigure}{\numberline{(a)}{\ignorespaces {\centering Generirani primjerci nakon prva epohe}}}{28}{subfigure.6.1}\protected@file@percent }
\@writefile{lof}{\contentsline {subfigure}{\numberline{(b)}{\ignorespaces {\centering Generirani primjerci nakon druge epohe}}}{28}{subfigure.6.2}\protected@file@percent }
\@writefile{lof}{\contentsline {subfigure}{\numberline{(c)}{\ignorespaces {\centering Generirani primjerci nakon treće epohe}}}{28}{subfigure.6.3}\protected@file@percent }
\@writefile{lof}{\contentsline {subfigure}{\numberline{(d)}{\ignorespaces {\centering Generirani primjerci nakon četvrte epohe}}}{28}{subfigure.6.4}\protected@file@percent }
\@writefile{lof}{\contentsline {subfigure}{\numberline{(e)}{\ignorespaces {\centering Generirani primjerci nakon pete epohe}}}{28}{subfigure.6.5}\protected@file@percent }
\@writefile{lof}{\contentsline {figure}{\numberline {4.7}{\ignorespaces Generirani primjerci gotovim CelebA modelom\relax }}{28}{figure.caption.103}\protected@file@percent }
\@writefile{lof}{\contentsline {figure}{\numberline {4.8}{\ignorespaces Kretanje pogreške na generiranim i primjerima za treniranje - CelebA\relax }}{29}{figure.caption.105}\protected@file@percent }
\newlabel{fig:loss}{{4.8}{29}{Kretanje pogreške na generiranim i primjerima za treniranje - CelebA\relax }{figure.caption.105}{}}
\@writefile{lot}{\contentsline {table}{\numberline {4.7}{\ignorespaces Nazivi klasa generiranih primjera - CelebA\relax }}{29}{table.caption.104}\protected@file@percent }
\@writefile{toc}{\contentsline {section}{\numberline {4.4}Ostale implementacije}{30}{section.4.4}\protected@file@percent }
\@writefile{toc}{\contentsline {subsubsection}{Implementacija Erika Lindera-Noréna}{30}{section*.106}\protected@file@percent }
\@writefile{toc}{\contentsline {paragraph}{}{30}{section*.107}\protected@file@percent }
\@writefile{lof}{\contentsline {figure}{\numberline {4.9}{\ignorespaces Generirani primjerci kroz epohe - Erik Linder-Norén\relax }}{30}{figure.caption.108}\protected@file@percent }
\newlabel{fig:minjong-generator-samples}{{4.9}{30}{Generirani primjerci kroz epohe - Erik Linder-Norén\relax }{figure.caption.108}{}}
\@writefile{lof}{\contentsline {subfigure}{\numberline{(a)}{\ignorespaces {\centering Generirani primjerci nakon prva epohe}}}{30}{subfigure.9.1}\protected@file@percent }
\@writefile{lof}{\contentsline {subfigure}{\numberline{(b)}{\ignorespaces {\centering Generirani primjerci nakon druge epohe}}}{30}{subfigure.9.2}\protected@file@percent }
\@writefile{lof}{\contentsline {subfigure}{\numberline{(c)}{\ignorespaces {\centering Generirani primjerci nakon treće epohe}}}{30}{subfigure.9.3}\protected@file@percent }
\@writefile{lof}{\contentsline {subfigure}{\numberline{(d)}{\ignorespaces {\centering Generirani primjerci nakon 178. epohe}}}{30}{subfigure.9.4}\protected@file@percent }
\@writefile{lof}{\contentsline {subfigure}{\numberline{(e)}{\ignorespaces {\centering Generirani primjerci nakon 179. epohe}}}{30}{subfigure.9.5}\protected@file@percent }
\@writefile{lof}{\contentsline {subfigure}{\numberline{(f)}{\ignorespaces {\centering Generirani primjerci nakon 180. epohe}}}{30}{subfigure.9.6}\protected@file@percent }
\@writefile{toc}{\contentsline {subsubsection}{Implementacija Minjong Kima}{31}{section*.109}\protected@file@percent }
\@writefile{toc}{\contentsline {paragraph}{}{31}{section*.110}\protected@file@percent }
\@writefile{lof}{\contentsline {figure}{\numberline {4.10}{\ignorespaces Generirani primjerci kroz epohe - Minjong Kim\relax }}{31}{figure.caption.111}\protected@file@percent }
\newlabel{fig:minjong-generator-samples}{{4.10}{31}{Generirani primjerci kroz epohe - Minjong Kim\relax }{figure.caption.111}{}}
\@writefile{lof}{\contentsline {subfigure}{\numberline{(a)}{\ignorespaces {\centering Generirani primjerci nakon prva epohe}}}{31}{subfigure.10.1}\protected@file@percent }
\@writefile{lof}{\contentsline {subfigure}{\numberline{(b)}{\ignorespaces {\centering Generirani primjerci nakon druge epohe}}}{31}{subfigure.10.2}\protected@file@percent }
\@writefile{lof}{\contentsline {subfigure}{\numberline{(c)}{\ignorespaces {\centering Generirani primjerci nakon treće epohe}}}{31}{subfigure.10.3}\protected@file@percent }
\@writefile{lof}{\contentsline {subfigure}{\numberline{(d)}{\ignorespaces {\centering Generirani primjerci nakon 178. epohe}}}{31}{subfigure.10.4}\protected@file@percent }
\@writefile{lof}{\contentsline {subfigure}{\numberline{(e)}{\ignorespaces {\centering Generirani primjerci nakon 179. epohe}}}{31}{subfigure.10.5}\protected@file@percent }
\@writefile{lof}{\contentsline {subfigure}{\numberline{(f)}{\ignorespaces {\centering Generirani primjerci nakon 180. epohe}}}{31}{subfigure.10.6}\protected@file@percent }
\newlabel{fig:minjong-fail-generator-samples}{{\caption@xref {fig:minjong-fail-generator-samples}{ on input line 686}}{31}{}{subfigure.4.11.3}{}}
\@writefile{lof}{\contentsline {subfigure}{\numberline{(a)}{\ignorespaces {\centering Generirani primjerci nakon 181. epohe}}}{31}{subfigure.11.1}\protected@file@percent }
\@writefile{lof}{\contentsline {subfigure}{\numberline{(b)}{\ignorespaces {\centering Generirani primjerci nakon 183. epohe}}}{31}{subfigure.11.2}\protected@file@percent }
\@writefile{lof}{\contentsline {subfigure}{\numberline{(c)}{\ignorespaces {\centering Generirani primjerci nakon 200. epohe}}}{31}{subfigure.11.3}\protected@file@percent }
\citation{ImpressiveGAN}
\citation{ImpressiveGAN}
\bibdata{literatura}
\@writefile{toc}{\contentsline {chapter}{\numberline {5}Zaključak}{32}{chapter.5}\protected@file@percent }
\@writefile{lof}{\addvspace {10\p@ }}
\@writefile{lot}{\addvspace {10\p@ }}
\@writefile{toc}{\contentsline {paragraph}{}{32}{section*.113}\protected@file@percent }
\@writefile{lof}{\contentsline {figure}{\numberline {5.1}{\ignorespaces Napredak u kvaliteti generiranih primjera \citep  {ImpressiveGAN}\relax }}{32}{figure.caption.114}\protected@file@percent }
\@writefile{toc}{\contentsline {paragraph}{}{32}{section*.115}\protected@file@percent }
\@writefile{toc}{\contentsline {paragraph}{}{32}{section*.116}\protected@file@percent }
\bibcite{ConvImage}{{1}{}{{Con}}{{}}}
\bibcite{NeuralNetOverview}{{2}{}{{Neu}}{{}}}
\bibcite{arjovsky2017principled}{{3}{2017}{{Arjovsky i Bottou}}{{}}}
\bibcite{ImpressiveGAN}{{4}{2019{}}{{Brownlee}}{{}}}
\bibcite{ProgressiveGAN}{{5}{2019{}}{{Brownlee}}{{}}}
\bibcite{ActivationFunction}{{6}{2021}{{Brownlee}}{{}}}
\bibcite{NeuralNetTrain}{{7}{2017}{{Bushaev}}{{}}}
\bibcite{GenVsDisc}{{8}{2020}{{Causevic}}{{}}}
\@writefile{toc}{\contentsline {chapter}{Literatura}{33}{chapter*.117}\protected@file@percent }
\bibcite{PreventOverfitting}{{9}{2018}{{Despois}}{{}}}
\bibcite{goodfellow2014generative}{{10}{2014}{{Goodfellow et~al.}}{{Goodfellow, Pouget-Abadie, Mirza, Xu, Warde-Farley, Ozair, Courville, i Bengio}}}
\bibcite{journals/corr/abs-1710-10196}{{11}{2017}{{Karras et~al.}}{{Karras, Aila, Laine, i Lehtinen}}}
\bibcite{Neuron}{{12}{2020}{{McCullum}}{{}}}
\bibcite{journals/corr/MirzaO14}{{13}{2014}{{Mirza i Osindero}}{{}}}
\bibcite{RModel}{{14}{2019}{{Navlani}}{{}}}
\bibcite{wiki:PyTorch}{{15}{2021}{{Wikipedia}}{{}}}
\bibcite{CycleGAN2017}{{16}{2017}{{Zhu et~al.}}{{Zhu, Park, Isola, i Efros}}}
\bibstyle{fer}
\citation{PreventOverfitting}
\citation{RModel}
\citation{Neuron}
\citation{ConvImage}
\citation{ImpressiveGAN}
\@writefile{toc}{\contentsline {chapter}{Popis slika}{35}{chapter*.118}\protected@file@percent }
\@writefile{toc}{\contentsline {chapter}{Popis tablica}{36}{chapter*.119}\protected@file@percent }
\@writefile{toc}{\contentsline {paragraph}{}{37}{section*.120}\protected@file@percent }
\@writefile{toc}{\contentsline {paragraph}{}{37}{section*.121}\protected@file@percent }
\@writefile{toc}{\contentsline {paragraph}{}{38}{section*.122}\protected@file@percent }
\@writefile{toc}{\contentsline {paragraph}{}{38}{section*.123}\protected@file@percent }
\gdef \@abspage@last{43}
